0.000000, 0.000000, 0.000000, 0.000000, 0.000000, 0.000000, 0.000000, 0.000000, 0.000000
1.000000, 0.000000, 0.000000, 0.000000, 0.000000, 0.000000, 0.000000, 0.000000, 0.000000
2.000000, 0.000000, 0.000000, 0.000000, 0.000000, 0.000000, 0.000000, 0.000000, 0.000000
3.000000, 0.000000, 0.000000, 0.000000, 0.000000, 0.000000, 0.000000, 0.000000, 0.000000
4.000000, 0.000000, 0.000000, 0.000000, 0.000000, 0.000000, 0.000000, 0.000000, 0.000000
5.000000, 0.000000, 2.000000, 0.000000, 50.000000, 0.000000, 3.000000, 0.000000, 75.000000
6.000000, 0.000000, 2.000000, 0.000000, 50.000000, 0.000000, 3.000000, 0.000000, 75.000000
7.000000, 0.000000, 0.000000, 0.000000, -50.000000, 0.000000, 3.000000, 0.000000, 0.000000
8.000000, 0.000000, 0.000000, 0.000000, -50.000000, 0.000000, 3.000000, 0.000000, 0.000000
9.000000, 0.000000, 0.000000, 0.000000, -50.000000, 0.000000, 3.000000, 0.000000, 0.000000
10.000000, -44.204154, -8.000000, -1105.103850, -200.000000, -5.189259, 0.000000, -129.731453, -75.000000
11.000000, -44.204154, -8.000000, -1105.103850, -200.000000, -5.189259, 0.000000, -129.731453, -75.000000
12.000000, -44.204154, -8.000000, -1105.103850, -200.000000, -5.189259, 0.000000, -129.731453, -75.000000
13.000001, -43.602443, -9.000000, 15.042724, -25.000000, -5.042736, 6.000000, 3.663066, 150.000000
14.000000, -43.602443, -9.000000, 15.042724, -25.000000, -5.042736, 6.000000, 3.663066, 150.000000
15.000000, -42.613921, -17.000000, 24.713018, -200.000000, -4.676437, 19.000000, 9.157462, 325.000000
16.000000, -42.613921, -17.000000, 24.713018, -200.000000, -4.676437, 19.000000, 9.157462, 325.000000
17.000000, -42.613921, -17.000000, 24.713018, -200.000000, -4.676437, 19.000000, 9.157462, 325.000000
18.000001, -39.949205, -19.000000, 66.617875, -50.000000, -4.774117, 17.000000, -2.441974, -50.000000
19.000000, -39.949205, -19.000000, 66.617875, -50.000000, -4.774117, 17.000000, -2.441974, -50.000000
20.000000, -39.949205, -19.000000, 66.617875, -50.000000, -4.774117, 17.000000, -2.441974, -50.000000
21.000001, -36.811719, -19.000000, 78.437204, 0.000000, -4.676437, 19.000000, 2.441974, 50.000000
22.000000, -36.811719, -19.000000, 78.437204, 0.000000, -4.676437, 19.000000, 2.441974, 50.000000
23.000000, -33.244443, -20.000000, 89.181871, -25.000000, -4.261295, 19.000000, 10.378555, 0.000000
24.000001, -33.244443, -20.000000, 89.181871, -25.000000, -4.261295, 19.000000, 10.378555, 0.000000
25.000000, -33.244443, -20.000000, 89.181871, -25.000000, -4.261295, 19.000000, 10.378555, 0.000000
26.000001, -30.579731, -23.000000, 66.617789, -75.000000, -4.065937, 22.000000, 4.883960, 75.000000
27.000000, -30.579731, -23.000000, 66.617789, -75.000000, -4.065937, 22.000000, 4.883960, 75.000000
28.000000, -30.579731, -23.000000, 66.617789, -75.000000, -4.065937, 22.000000, 4.883960, 75.000000
29.000001, -28.000977, -29.000001, 64.468856, -150.000000, -4.017097, 30.000000, 1.220987, 200.000000
30.000000, -28.000977, -29.000001, 64.468856, -150.000000, -4.017097, 30.000000, 1.220987, 200.000000
31.000001, -25.508180, -34.000001, 62.319965, -125.000000, -3.724056, 38.000000, 7.326028, 200.000000
32.000000, -25.508180, -34.000001, 62.319965, -125.000000, -3.724056, 38.000000, 7.326028, 200.000000
33.000000, -25.508180, -34.000001, 62.319965, -125.000000, -3.724056, 38.000000, 7.326028, 200.000000
